{
    "author.name":"Xolens",
    "author.email":"xolens.official@gmail.com",
    "package.name":"Xolens/PackageName",
    "package.laravel.base":"PackageName",
    "package.author.base":"Xolens",
    "package.description":"Package's decription.",
    "package.laravel.provider":"LaravelProvider",
    
    "package.licence":"MIT",
    "package.type":"library",
    "publish.year":"2019",
    
    "require-dev.orchestra.version":"~3.4.0",
    "require.pglarautil.version":"dev-master",
    
    "repositories.local.url":"/var/www/repositories/xolens.laravel/local/*",
    "config.output.dir":"./source/output/extjs",
    "config.output.dir.php":"./source/output/php",
    "config.output.dir.extjs":"./source/output/",

    "config.database.connection":"pgsql",
    "config.database.host":"127.0.0.1",
    "config.database.port":"5432",
    "config.database.database":"test",
    "config.database.schema":"test",
    "config.database.username":"test",
    "config.database.password":"test"
}
